…
``` r

read_csv(mums2_example("boryillus_peaktable.csv"), skip = 2)
#> Rows: 12822 Columns: 48
#> ── Column specification ────────────────────────────────────────────────────────
#> Delimiter: ","
#> chr  (1): Compound
#> dbl (47): m/z, Retention time (min), 221012_DGM_Blank1_1_1_390, 221012_DGM_B...
#> 
#> ℹ Use `spec()` to retrieve the full column specification for this data.
#> ℹ Specify the column types or set `show_col_types = FALSE` to quiet this message.
#> # A tibble: 12,822 × 48
#>    Compound              `m/z` `Retention time (min)` 221012_DGM_Blank1_1_1_39…¹
#>    <chr>                 <dbl>                  <dbl>                      <dbl>
#>  1 403.23332 Da 188.08 s  404.                   3.13                         0 
#>  2 387.24448 Da 188.56 s  388.                   3.14                      8674.
#>  3 387.27587 Da 188.61 s  388.                   3.14                         0 
#>  4 392.23176 Da 190.26 s  393.                   3.17                         0 
#>  5 497.99335 Da 190.74 s  499.                   3.18                         0 
#>  6 279.96160 Da 191.42 s  281.                   3.19                         0 
#>  7 244.13361 Da 203.39 s  245.                   3.39                       412.
#>  8 447.25451 Da 211.76 s  448.                   3.53                         0 
#>  9 315.05243 Da 214.18 s  316.                   3.57                       258.
#> 10 436.22069 Da 218.58 s  437.                   3.64                      6328.
#> # ℹ 12,812 more rows
#> # ℹ abbreviated name: ¹​`221012_DGM_Blank1_1_1_390`
#> # ℹ 44 more variables: `221012_DGM_Blank1_1_2_391` <dbl>,
#> #   `221012_DGM_Blank1_1_3_392` <dbl>, `221012_DGM_MB1588_3_1_395` <dbl>,
#> #   `221012_DGM_MB1588_3_2_396` <dbl>, `221012_DGM_MB1588_3_3_397` <dbl>,
#> #   `221012_DGM_MB1589_4_1_398` <dbl>, `221012_DGM_MB1589_4_2_399` <dbl>,
#> #   `221012_DGM_MB1589_4_3_400` <dbl>, `221012_DGM_MB1590_5_1_401` <dbl>, …
```
…
``` r

read_csv(mums2_example("boryillus_metadata.csv"))
#> Rows: 45 Columns: 9
#> ── Column specification ────────────────────────────────────────────────────────
#> Delimiter: ","
#> chr (3): Injection, Sample_Code, Biological_Group
#> dbl (1): Injection volume
#> lgl (5): File Text, Sample_Notes, MS method, LC method, Vial_Position
#> 
#> ℹ Use `spec()` to retrieve the full column specification for this data.
#> ℹ Specify the column types or set `show_col_types = FALSE` to quiet this message.
#> # A tibble: 45 × 9
#>    Injection      `File Text` Sample_Notes `MS method` `LC method` Vial_Position
#>    <chr>          <lgl>       <lgl>        <lgl>       <lgl>       <lgl>        
#>  1 221012_DGM_Bl… NA          NA           NA          NA          NA           
#>  2 221012_DGM_Bl… NA          NA           NA          NA          NA           
#>  3 221012_DGM_Bl… NA          NA           NA          NA          NA           
#>  4 221012_DGM_MB… NA          NA           NA          NA          NA           
#>  5 221012_DGM_MB… NA          NA           NA          NA          NA           
#>  6 221012_DGM_MB… NA          NA           NA          NA          NA           
#>  7 221012_DGM_MB… NA          NA           NA          NA          NA           
#>  8 221012_DGM_MB… NA          NA           NA          NA          NA           
#>  9 221012_DGM_MB… NA          NA           NA          NA          NA           
#> 10 221012_DGM_MB… NA          NA           NA          NA          NA           
#> # ℹ 35 more rows
#> # ℹ 3 more variables: `Injection volume` <dbl>, Sample_Code <chr>,
#> #   Biological_Group <chr>
```
…
